<svg xmlns="http://www.w3.org/2000/svg" viewBox="0 0 175.2 54" height="54" width="175.2"><g class="nc-icon-wrapper js-transition-icon" data-effect="scale" data-event="mouseenter"><g class="js-transition-icon__state"><style type="text/css">
	.st0{fill:#1C2021;}
	.st1{fill:#FFFFFF;}
	.st2{fill:none;}
</style><path class="st0" d="M43.6,14h2.5l1.4,13.8c0.2,2.4,0.4,4.2,0.5,7h0.3c0.1-2.8,0.2-4.6,0.5-7L50.2,14h2.8l1.4,13.8
	c0.2,2.4,0.3,4.2,0.4,7h0.3c0.2-2.8,0.3-4.6,0.5-7L57.3,14h2.4l-3,24.8h-3l-1.2-12.9c-0.2-2.7-0.4-4.4-0.6-7.2h-0.3
	c-0.2,2.8-0.3,4.5-0.6,7.2l-1.3,12.9h-3L43.6,14z"></path><path class="st0" d="M63.6,14v24.8h-2.5V14H63.6z"></path><path class="st0" d="M65.9,14h2.5v22.7h4.1v2.1h-6.6L65.9,14L65.9,14z"></path><path class="st0" d="M74,14h2.5v22.7h4.1v2.1H74L74,14L74,14z"></path><path class="st0" d="M84.6,14v24.8h-2.5V14H84.6z"></path><path class="st0" d="M89.5,14h3.1l3.5,24.8h-2.6l-0.7-4.9h-3.8l-0.7,4.9H86L89.5,14z M92.7,32l-0.8-6.6c-0.3-2.6-0.5-4.5-0.7-7.4
	h-0.3c-0.2,2.9-0.4,4.8-0.7,7.4L89.4,32H92.7z"></path><path class="st0" d="M97.6,14h3.7l2.1,12.6c0.4,2.8,0.6,4.9,0.8,8.1h0.3c0.3-3.3,0.5-5.4,0.8-8.1l2.1-12.6h3.8v24.8h-2.5l0-12.6
	c0-2.4,0.1-4.8,0.3-8.1l-0.4,0l-3.2,20.7h-2.4L100,18.1l-0.4,0c0.2,3.3,0.2,5.7,0.2,8.1v12.6h-2.3L97.6,14L97.6,14z"></path><path class="st0" d="M116.8,33.5v-14c0-3.8,1.6-5.7,4.7-5.7c2.9,0,4.5,1.5,4.5,5.2v3.2l-2.5,0.6v-3.5c0-2.6-0.7-3.5-2-3.5
	c-1.5,0-2.2,1.2-2.2,3.7v14.1c0,2.5,0.6,3.7,1.9,3.7c1.5,0,2.6-3.3,2.8-9.6h-2.7v-2h4.9v13.3h-2.1c-0.1-1,0.1-2.2,0.6-4.9l-0.3-0.1
	c-0.8,3.8-1.9,5.2-3.9,5.2C118,39,116.8,37.2,116.8,33.5z"></path><path class="st0" d="M131,14h3.1l3.5,24.8h-2.6l-0.7-4.9h-3.8l-0.6,4.9h-2.4L131,14z M134.2,32l-0.8-6.6c-0.3-2.6-0.5-4.5-0.7-7.4
	h-0.3c-0.2,2.9-0.4,4.8-0.7,7.4l-0.8,6.6H134.2z"></path><path class="st0" d="M147.7,14v20.5c0,3.2-1.4,4.6-4.4,4.6c-3,0-4.5-1.4-4.5-4.6V14h2.5v20.4c0,1.9,0.6,2.7,2,2.7
	c1.3,0,1.9-0.8,1.9-2.7V14H147.7z"></path><path class="st0" d="M149.1,14h2.6l1.6,13.3c0.3,2.6,0.4,4.5,0.6,7.5h0.3c0.2-3,0.3-4.8,0.6-7.5l1.6-13.3h2.5l-3.4,24.8h-3L149.1,14
	z"></path><path class="st0" d="M162.9,14v24.8h-2.5V14H162.9z"></path><path class="st0" d="M165.2,14h3.4l3.3,15.2c0.3,1.5,0.6,3.2,0.9,5.4l0.4,0c-0.2-2.5-0.4-5.7-0.4-8.1l0-12.5h2.4v24.8h-3.4l-3.2-15
	c-0.4-1.9-0.6-3.3-0.9-5.7l-0.4,0c0.2,2.4,0.4,5.6,0.4,7.8l0,12.9h-2.4L165.2,14z"></path><path id="bg_1_" class="st1" d="M18.7,0h-8.5C4.6,0,0,4.5,0,10.1c0,4,2.4,7.7,6.1,9.3v1.1c-0.6,0.3-1.1,0.7-1.6,1.2l-0.9,0.9
	l2.3,2.3c-0.2,0.2-0.4,0.4-0.6,0.5l-0.9,0.9L6,27.9v4.5c-2.2,1-3.7,3.2-3.7,5.7C2.4,46.9,9.7,54,18.7,54c4.3,0,8.4-1.7,11.5-4.7
	S35,42.3,35,38V15.9C35,7.1,27.7,0,18.7,0z"></path><g id="face_1_">
	<path class="st0" d="M15,43.7L15,43.7c0.7,0,1.3-0.3,1.7-0.8l4.9-5.9H8.8l4.5,5.9C13.7,43.4,14.3,43.7,15,43.7z M14.6,41.5l-2-2.6
		h5.1l-2.2,2.7C15.2,41.7,14.8,41.7,14.6,41.5z"></path>
	<path class="st2" d="M19.5,3.1c-1.6,0.8-2.6,2.4-2.6,4.1H15c0-1.6,0.5-3,1.4-4.1h-3.6c-2.5,0-4.5,2-4.5,4.5H6.4C6.4,6,7,4.5,8,3.4
		C5.2,4.3,3.1,7,3.2,10.1c0,3.9,3.2,7.1,7.1,7.1c0.2,0,0.3,0,0.5,0c-1.7-1.1-3-2.7-3.7-4.7h2c0.9,2,2.7,3.5,4.9,4
		c-2-1.6-3.3-4.1-3.3-6.9h1.9c0,3.2,2.1,5.9,5.1,6.8c0.1-0.1,0.1-0.1,0.2-0.1c-1.1-1-2-2.3-2.4-3.8h2c0.9,2.5,3.3,4.2,6.1,4.2
		c1,0,2.1-0.2,3-0.7c0-0.1,0.1-0.1,0.1-0.1l0.9,1.6c0,0.1-0.1,0.1-0.1,0.1c-1,0.6-1.6,1.6-1.6,2.8c0,1.8,1.5,3.3,3.3,3.3h0.9v7
		c0,3.8-1.4,7.3-4,10l-2.3-0.9v-1.7c0-1.8-1.5-3.3-3.3-3.3H8.8c-1.8,0-3.3,1.5-3.3,3.3c0,7.1,5.9,12.9,13.2,12.9
		c3.5,0,6.8-1.4,9.3-3.8c2.5-2.4,3.9-5.7,3.9-9.1H32V15.9C32,9.1,26.4,3.5,19.5,3.1z"></path>
	<path class="st0" d="M18.7,1.2h-8.5c-4.9,0-9,4-9,8.9c0,3.9,2.5,7.2,6.1,8.4v2.7c0.6-0.3,1.3-0.4,1.9-0.5V19c0.3,0,0.7,0.1,1,0.1
		c1.2,0,2.4-0.2,3.5-0.7c0.6,0.1,1.2,0.2,1.8,0.2c1.4,0,2.8-0.3,4.1-1c1.2,0.6,2.5,1,4,1c0.3,0,0.6,0,0.8,0
		c-0.2,0.6-0.4,1.2-0.4,1.9c0,2.5,1.8,4.6,4.2,5v5.2c0,2.8-0.9,5.4-2.5,7.6v-0.2c0-2.8-2.3-5.1-5.2-5.1H9.2v-4H7.3v4.1
		c-2.1,0.6-3.7,2.6-3.7,4.9c0,8.1,6.8,14.7,15.1,14.7c4,0,7.8-1.5,10.7-4.3s4.4-6.5,4.4-10.4V15.9C33.8,7.8,27,1.2,18.7,1.2z
		 M31.9,38.1L31.9,38.1c0,3.4-1.4,6.7-3.9,9.1c-2.5,2.4-5.8,3.8-9.3,3.8c-7.3,0-13.2-5.8-13.2-12.9c0-1.8,1.5-3.3,3.3-3.3h11.7
		c1.8,0,3.3,1.5,3.3,3.3v1.7l2.3,0.9c2.6-2.7,4-6.2,4-10v-7h-0.9c-1.8,0-3.3-1.5-3.3-3.3c0-1.2,0.6-2.2,1.6-2.8c0,0,0.1,0,0.1-0.1
		l-0.9-1.6c0,0-0.1,0-0.1,0.1c-0.9,0.5-2,0.7-3,0.7c-2.8,0-5.2-1.7-6.1-4.2h-2c0.4,1.5,1.3,2.8,2.4,3.8c-0.1,0-0.1,0-0.2,0.1
		c-3-0.9-5.1-3.6-5.1-6.8h-1.9c0,2.8,1.3,5.3,3.3,6.9c-2.2-0.5-4-2-4.9-4h-2c0.7,2,2,3.6,3.7,4.7c-0.2,0-0.3,0-0.5,0
		c-3.9,0-7.1-3.2-7.1-7.1C3.1,7,5.2,4.3,8,3.4C7,4.5,6.4,6,6.4,7.6h1.9c0-2.5,2-4.5,4.5-4.5h3.6C15.5,4.2,15,5.6,15,7.2h1.9
		c0-1.7,1-3.3,2.6-4.1C26.4,3.5,32,9.1,32,15.9L31.9,38.1z"></path>
	<polygon class="st0" points="12.1,25.1 12.1,27.4 12.1,32.3 17.7,32.3 17.7,30.3 14.1,30.3 14.1,22.4 12.1,23.2 	"></polygon>
</g><path id="right-eye_1_" class="st0" d="M21,27.6l1.3-1.3c-2-2-5.3-2-7.3,0l1.3,1.3C17.7,26.3,19.8,26.3,21,27.6z"></path><path id="right-eyebrow_1_" class="st0" d="M22.3,22.7l1.3-1.3c-2.4-2.4-6.3-2.4-8.8,0l1.3,1.3c0.8-0.8,1.9-1.3,3.1-1.3
	C20.4,21.4,21.5,21.9,22.3,22.7z"></path><path id="left-eye_1_" class="st0" d="M6.2,26.1l1.3,1.3c1.3-1.3,3.3-1.3,4.6,0v-2.3C10.2,24.1,7.8,24.5,6.2,26.1z"></path><path id="left-eyebrow_1_" class="st0" d="M5.4,22.5l1.3,1.3c1.5-1.5,3.7-1.6,5.4-0.6l2-0.8c-1.4-1.3-3.2-1.9-4.9-1.7
	c-0.6,0.1-1.3,0.2-1.9,0.5C6.6,21.5,6,21.9,5.4,22.5z"></path></g><g class="js-transition-icon__state" aria-hidden="true" style="display: none;"><style type="text/css">
	.st0{fill:#1C2021;}
	.st1{fill:#FFFFFF;}
	.st2{fill:none;}
</style><path class="st0" d="M43.6,14h2.5l1.4,13.8c0.2,2.4,0.4,4.2,0.5,7h0.3c0.1-2.8,0.2-4.6,0.5-7L50.2,14h2.8l1.4,13.8
	c0.2,2.4,0.3,4.2,0.4,7h0.3c0.2-2.8,0.3-4.6,0.5-7L57.3,14h2.4l-3,24.8h-3l-1.2-12.9c-0.2-2.7-0.4-4.4-0.6-7.2h-0.3
	c-0.2,2.8-0.3,4.5-0.6,7.2l-1.3,12.9h-3L43.6,14z"></path><path class="st0" d="M63.6,14v24.8h-2.5V14H63.6z"></path><path class="st0" d="M65.9,14h2.5v22.7h4.1v2.1h-6.6L65.9,14L65.9,14z"></path><path class="st0" d="M74,14h2.5v22.7h4.1v2.1H74L74,14L74,14z"></path><path class="st0" d="M84.6,14v24.8h-2.5V14H84.6z"></path><path class="st0" d="M89.5,14h3.1l3.5,24.8h-2.6l-0.7-4.9h-3.8l-0.7,4.9H86L89.5,14z M92.7,32l-0.8-6.6c-0.3-2.6-0.5-4.5-0.7-7.4
	h-0.3c-0.2,2.9-0.4,4.8-0.7,7.4L89.4,32H92.7z"></path><path class="st0" d="M97.6,14h3.7l2.1,12.6c0.4,2.8,0.6,4.9,0.8,8.1h0.3c0.3-3.3,0.5-5.4,0.8-8.1l2.1-12.6h3.8v24.8h-2.5l0-12.6
	c0-2.4,0.1-4.8,0.3-8.1l-0.4,0l-3.2,20.7h-2.4L100,18.1l-0.4,0c0.2,3.3,0.2,5.7,0.2,8.1v12.6h-2.3L97.6,14L97.6,14z"></path><path class="st0" d="M116.8,33.5v-14c0-3.8,1.6-5.7,4.7-5.7c2.9,0,4.5,1.5,4.5,5.2v3.2l-2.5,0.6v-3.5c0-2.6-0.7-3.5-2-3.5
	c-1.5,0-2.2,1.2-2.2,3.7v14.1c0,2.5,0.6,3.7,1.9,3.7c1.5,0,2.6-3.3,2.8-9.6h-2.7v-2h4.9v13.3h-2.1c-0.1-1,0.1-2.2,0.6-4.9l-0.3-0.1
	c-0.8,3.8-1.9,5.2-3.9,5.2C118,39,116.8,37.2,116.8,33.5z"></path><path class="st0" d="M131,14h3.1l3.5,24.8h-2.6l-0.7-4.9h-3.8l-0.6,4.9h-2.4L131,14z M134.2,32l-0.8-6.6c-0.3-2.6-0.5-4.5-0.7-7.4
	h-0.3c-0.2,2.9-0.4,4.8-0.7,7.4l-0.8,6.6H134.2z"></path><path class="st0" d="M147.7,14v20.5c0,3.2-1.4,4.6-4.4,4.6c-3,0-4.5-1.4-4.5-4.6V14h2.5v20.4c0,1.9,0.6,2.7,2,2.7
	c1.3,0,1.9-0.8,1.9-2.7V14H147.7z"></path><path class="st0" d="M149.1,14h2.6l1.6,13.3c0.3,2.6,0.4,4.5,0.6,7.5h0.3c0.2-3,0.3-4.8,0.6-7.5l1.6-13.3h2.5l-3.4,24.8h-3L149.1,14
	z"></path><path class="st0" d="M162.9,14v24.8h-2.5V14H162.9z"></path><path class="st0" d="M165.2,14h3.4l3.3,15.2c0.3,1.5,0.6,3.2,0.9,5.4l0.4,0c-0.2-2.5-0.4-5.7-0.4-8.1l0-12.5h2.4v24.8h-3.4l-3.2-15
	c-0.4-1.9-0.6-3.3-0.9-5.7l-0.4,0c0.2,2.4,0.4,5.6,0.4,7.8l0,12.9h-2.4L165.2,14z"></path><g id="bg">
	<path class="st1" d="M18.7,0h-8.5C4.6,0,0,4.5,0,10.1c0,4,2.4,7.7,6.1,9.3v2.1c-0.6,0.3-1.1,0.7-1.6,1.2l-0.9,0.9l1.8,1.8l-1,0.9
		L6,27.9v4.5c-2.2,1-3.7,3.2-3.7,5.7C2.4,46.9,9.7,54,18.7,54c4.3,0,8.4-1.7,11.5-4.7S35,42.3,35,38V15.9C35,7.1,27.7,0,18.7,0z"></path>
</g><g id="face">
	<path class="st0" d="M15,43.7L15,43.7c0.7,0,1.3-0.3,1.7-0.8l4.9-5.9H8.8l4.5,5.9C13.7,43.4,14.3,43.7,15,43.7z M14.6,41.5l-2-2.6
		h5.1l-2.2,2.7C15.2,41.7,14.8,41.7,14.6,41.5z"></path>
	<path class="st2" d="M19.5,3.1c-1.6,0.8-2.6,2.4-2.6,4.1H15c0-1.6,0.5-3,1.4-4.1h-3.6c-2.5,0-4.5,2-4.5,4.5H6.4C6.4,6,7,4.5,8,3.4
		C5.2,4.3,3.1,7,3.2,10.1c0,3.9,3.2,7.1,7.1,7.1c0.2,0,0.3,0,0.5,0c-1.7-1.1-3-2.7-3.7-4.7h2c0.9,2,2.7,3.5,4.9,4
		c-2-1.6-3.3-4.1-3.3-6.9h1.9c0,3.2,2.1,5.9,5.1,6.8c0.1-0.1,0.1-0.1,0.2-0.1c-1.1-1-2-2.3-2.4-3.8h2c0.9,2.5,3.3,4.2,6.1,4.2
		c1,0,2.1-0.2,3-0.7c0-0.1,0.1-0.1,0.1-0.1l0.9,1.6c0,0.1-0.1,0.1-0.1,0.1c-1,0.6-1.6,1.6-1.6,2.8c0,1.8,1.5,3.3,3.3,3.3h0.9v7
		c0,3.8-1.4,7.3-4,10l-2.3-0.9v-1.7c0-1.8-1.5-3.3-3.3-3.3H8.8c-1.8,0-3.3,1.5-3.3,3.3c0,7.1,5.9,12.9,13.2,12.9
		c3.5,0,6.8-1.4,9.3-3.8c2.5-2.4,3.9-5.7,3.9-9.1H32V15.9C32,9.1,26.4,3.5,19.5,3.1z"></path>
	<path class="st0" d="M18.7,1.2h-8.5c-4.9,0-9,4-9,8.9c0,3.9,2.5,7.2,6.1,8.4v4.2c0.6-0.3,1.3-0.4,1.9-0.5V19c0.3,0,0.7,0.1,1,0.1
		c1.2,0,2.4-0.2,3.5-0.7c0.6,0.1,1.2,0.2,1.8,0.2c1.4,0,2.8-0.3,4.1-1c1.2,0.6,2.5,1,4,1c0.3,0,0.6,0,0.8,0
		c-0.2,0.6-0.4,1.2-0.4,1.9c0,2.5,1.8,4.6,4.2,5v5.2c0,2.8-0.9,5.4-2.5,7.6v-0.2c0-2.8-2.3-5.1-5.2-5.1H9.2v-4H7.3v4.1
		c-2.1,0.6-3.7,2.6-3.7,4.9c0,8.1,6.8,14.7,15.1,14.7c4,0,7.8-1.5,10.7-4.3s4.4-6.5,4.4-10.4V15.9C33.8,7.8,27,1.2,18.7,1.2z
		 M31.9,38.1L31.9,38.1c0,3.4-1.4,6.7-3.9,9.1c-2.5,2.4-5.8,3.8-9.3,3.8c-7.3,0-13.2-5.8-13.2-12.9c0-1.8,1.5-3.3,3.3-3.3h11.7
		c1.8,0,3.3,1.5,3.3,3.3v1.7l2.3,0.9c2.6-2.7,4-6.2,4-10v-7h-0.9c-1.8,0-3.3-1.5-3.3-3.3c0-1.2,0.6-2.2,1.6-2.8c0,0,0.1,0,0.1-0.1
		l-0.9-1.6c0,0-0.1,0-0.1,0.1c-0.9,0.5-2,0.7-3,0.7c-2.8,0-5.2-1.7-6.1-4.2h-2c0.4,1.5,1.3,2.8,2.4,3.8c-0.1,0-0.1,0-0.2,0.1
		c-3-0.9-5.1-3.6-5.1-6.8h-1.9c0,2.8,1.3,5.3,3.3,6.9c-2.2-0.5-4-2-4.9-4h-2c0.7,2,2,3.6,3.7,4.7c-0.2,0-0.3,0-0.5,0
		c-3.9,0-7.1-3.2-7.1-7.1C3.1,7,5.2,4.3,8,3.4C7,4.5,6.4,6,6.4,7.6h1.9c0-2.5,2-4.5,4.5-4.5h3.6C15.5,4.2,15,5.6,15,7.2h1.9
		c0-1.7,1-3.3,2.6-4.1C26.4,3.5,32,9.1,32,15.9L31.9,38.1z"></path>
	<polygon class="st0" points="12.1,25.1 12.1,27.4 12.1,32.3 17.7,32.3 17.7,30.3 14.1,30.3 14.1,23.8 12.1,23.2 	"></polygon>
</g><path id="right-eye" class="st0" d="M18.7,27.4c0.8,0,1.4-0.4,1.4-1.4c0-1-0.5-1.4-1.4-1.4c-0.8,0-1.4,0.5-1.4,1.4
	C17.3,26.8,17.9,27.4,18.7,27.4z"></path><path id="right-eyebrow" class="st0" d="M22.4,23.2l1.6-0.9c-1.6-3-5.4-4.1-8.4-2.5l0.9,1.6c1-0.5,2.2-0.7,3.3-0.4
	C20.9,21.4,21.9,22.2,22.4,23.2z"></path><path id="left-eye" class="st0" d="M6.2,26.7L7.5,28c1.3-1.3,3.3-1.3,4.6,0v-2.3C10.2,24.7,7.8,25.1,6.2,26.7z"></path><path id="left-eyebrow" class="st0" d="M5.4,23.9l1.3,1.3c1.5-1.5,3.7-1.6,5.4-0.6l2-0.8c-1.4-1.3-3.2-1.9-4.9-1.7
	c-0.6,0.1-1.3,0.2-1.9,0.5C6.6,22.9,6,23.3,5.4,23.9z"></path></g></g><script>!function(){"use strict";if(!window.requestAnimationFrame){var a=null;window.requestAnimationFrame=function(t,i){var e=(new Date).getTime();a||(a=e);var s=Math.max(0,16-(e-a)),n=window.setTimeout(function(){t(e+s)},s);return a=e+s,n}}function r(t,i,e,s){return 1&gt;(t/=s/2)?e/2*t*t*t*t+i:-e/2*((t-=2)*t*t*t-2)+i}function e(t){return t?[1,0]:[0,1]}function t(t){this.element=t,this.svg=function t(i){var e=i.parentNode;if("svg"!==e.tagName)e=t(e);return e;}(this.element),this.getSize(),this.states=this.element.querySelectorAll(".js-transition-icon__state"),this.time={start:null,total:200},this.status={interacted:!1,animating:!1},this.animation={effect:this.element.getAttribute("data-effect"),event:this.element.getAttribute("data-event")},this.init()}t.prototype.getSize=function(){var t=this.svg.getAttribute("viewBox");this.size=t?{width:t.split(" ")[2],height:t.split(" ")[3]}:this.svg.getBoundingClientRect()},t.prototype.init=function(){var t=this;this.svg.addEventListener(t.animation.event,function(){t.status.animating||(t.status.animating=!0,window.requestAnimationFrame(t.triggerAnimation.bind(t)))})},t.prototype.triggerAnimation=function(t){var i=this.getProgress(t);this.animateIcon(i),this.checkProgress(i)},t.prototype.getProgress=function(t){return this.time.start||(this.time.start=t),t-this.time.start},t.prototype.checkProgress=function(t){if(this.time.total&gt;t)window.requestAnimationFrame(this.triggerAnimation.bind(this));else{this.status={interacted:!this.status.interacted,animating:!1},this.time.start=null;var i=e(this.status.interacted);this.states[i[0]].removeAttribute("aria-hidden"),this.states[i[1]].setAttribute("aria-hidden","true")}},t.prototype.animateIcon=function(t){if(t&gt;this.time.total){t=this.time.total;}if(0&gt;t){t=0;};var i=e(this.status.interacted);this.states[i[0]].style.display=t&gt;this.time.total/2?"none":"block",this.states[i[1]].style.display=t&gt;this.time.total/2?"block":"none","scale"==this.animation.effect?this.scaleIcon(t,i[0],i[1]):this.rotateIcon(t,i[0],i[1])},t.prototype.scaleIcon=function(t,i,e){var s=r(Math.min(t,this.time.total/2),1,-.2,this.time.total/2).toFixed(2),n=r(Math.max(t-this.time.total/2,0),.2,-.2,this.time.total/2).toFixed(2);this.states[i].setAttribute("transform","translate("+this.size.width*(1-s)/2+" "+this.size.height*(1-s)/2+") scale("+s+")"),this.states[e].setAttribute("transform","translate("+this.size.width*n/2+" "+this.size.height*n/2+") scale("+(1-n)+")")},t.prototype.rotateIcon=function(t,i,e){var s=r(t,0,180,this.time.total).toFixed(2);this.states[i].setAttribute("transform","rotate(-"+s+" "+this.size.width/2+" "+this.size.height/2+")"),this.states[e].setAttribute("transform","rotate("+(180-s)+" "+this.size.width/2+" "+this.size.height/2+")")};var i=document.querySelectorAll(".js-transition-icon");if(i)for(var s=0;i.length&gt;s;s++)new t(i[s])}();</script></svg>